{
  "project_info": {
    "project_number": "13124250329",
    "firebase_url": "https://vansales-android.firebaseio.com",
    "project_id": "vansales-android",
    "storage_bucket": "vansales-android.appspot.com"
  },
  "client": [
    {
      "client_info": {
        "mobilesdk_app_id": "1:13124250329:android:56644758048c6142c36cc8",
        "android_client_info": {
          "package_name": "com.tbs.brothersgas.haadhir"
        }
      },
      "oauth_client": [
        {
          "client_id": "13124250329-ug7confkrkmjujj6ibjqq3k2p1guq5ri.apps.googleusercontent.com",
          "client_type": 3
        }
      ],
      "api_key": [
        {
          "current_key": "AIzaSyBkGtrr8Kf0jgHcZExIn8hscz32RyAy-JA"
        }
      ],
      "services": {
        "appinvite_service": {
          "other_platform_oauth_client": [
            {
              "client_id": "13124250329-ug7confkrkmjujj6ibjqq3k2p1guq5ri.apps.googleusercontent.com",
              "client_type": 3
            }
          ]
        }
      }
    }
  ],
  "configuration_version": "1"
}